Permutáció: 012
Gray DKod Hamm
000  000  0
001  001  0
011  111  1
010  011  1
110  101  2
111  100  2
101  110  2
100  010  2
Össz táv: 10

Permutáció: 021
Gray DKod Hamm
000  000  0
010  001  2
011  111  1
001  011  1
101  101  0
111  100  2
110  110  0
100  010  2
Össz táv: 8

Permutáció: 102
Gray DKod Hamm
000  000  0
001  001  0
101  111  1
100  011  3
110  101  2
111  100  2
011  110  2
010  010  0
Össz táv: 10

Permutáció: 120
Gray DKod Hamm
000  000  0
010  001  2
110  111  1
100  011  3
101  101  0
111  100  2
011  110  2
001  010  2
Össz táv: 12

Permutáció: 210
Gray DKod Hamm
000  000  0
100  001  2
110  111  1
010  011  1
011  101  2
111  100  2
101  110  2
001  010  2
Össz táv: 12

Permutáció: 201
Gray DKod Hamm
000  000  0
100  001  2
101  111  1
001  011  1
011  101  2
111  100  2
110  110  0
010  010  0
Össz táv: 8

